Other Games:,,,,
glTron,https://github.com/Chluverman/android-gltron,http://www.gltron.org/screenshots.php,,
Blokinger,https://github.com/vocollapse/Blockinger,,,
Seafood Berserker,https://github.com/quaap/SeafoodBerserker,,,
GdxDemo3D,https://github.com/jsjolund/GdxDemo3D,,,
robotfindskitten,http://robotfindskitten.org/,,,
portable puzzle collection,https://www.chiark.greenend.org.uk/~sgtatham/puzzles/,https://chris.boyle.name/projects/android-puzzles/,https://play.google.com/store/apps/details?id=name.boyle.chris.sgtpuzzles,https://github.com/chrisboyle/sgtpuzzles
Brogue,https://sites.google.com/site/broguegame/,,,
Dungeon Crawl Stone Soup,http://crawl.develz.org/,,,
Fish Fillets NG,http://fillets.sourceforge.net/download.php,,,
Blokinger,https://github.com/vocollapse/Blockinger,,,
frozenbubble,http://www.frozen-bubble.org/downloads/,http://m.smsbox.ch/pro/frozenbubble,,
OpenArena,http://openarena.ws/smfnews.php,,,
Euskal 24 (2016) - Tower Defense,https://github.com/pabloalba/euskal-tower-defense/,,,
dragonwars,https://github.com/pabloalba/dragonwars,,,
adventures,https://github.com/pabloalba/adventures,,,
zombierun,https://github.com/pabloalba/zombierun,,,
OpenTTD,3,,,
,,,,
Lists,,,,
https://opensource.com/life/16/10/12-open-source-games-android,,,,
http://www.java2s.com/Open-Source/Android_Free_Code/Game/race/index.htm,,,,
